%YAML 1.1
%TAG !u! tag:unity3d.com,2011:
--- !u!114 &11400000
MonoBehaviour:
  m_ObjectHideFlags: 0
  m_CorrespondingSourceObject: {fileID: 0}
  m_PrefabInstance: {fileID: 0}
  m_PrefabAsset: {fileID: 0}
  m_GameObject: {fileID: 0}
  m_Enabled: 1
  m_EditorHideFlags: 0
  m_Script: {fileID: 11500000, guid: 5ad69ffb0571d2648ad02fc3ef18dbdd, type: 3}
  m_Name: Level 1
  m_EditorClassIdentifier: 
  <IngredientPrefab>k__BackingField:
  - {fileID: 7775671750309867455, guid: a35648744fdd47b4c9cd24f081bc73ca, type: 3}
  - {fileID: 4191327820900800822, guid: f3062111d22317b468eb18821f2a717b, type: 3}
  <Visitor>k__BackingField: {fileID: 6064424444283066422, guid: 26c98601719d3864da1339fe1d673a56, type: 3}
